{
    "is_token_endpoint_ip_header_trusted": false,
    "name": "Google Precision Dashboard FE",
    "is_first_party": true,
    "oidc_conformant": true,
    "sso_disabled": false,
    "cross_origin_auth": false,
    "allowed_clients": [],
    "callbacks": [
      "https://0.0.0.0",
      "http://0.0.0.0"
    ],
    "native_social_login": {
      "apple": {
        "enabled": false
      },
      "facebook": {
        "enabled": false
      }
    },
    "refresh_token": {
      "rotation_type": "non-rotating",
      "expiration_type": "non-expiring"
    },
    "allowed_logout_urls": [
      "http://0.0.0.0/user/login",
      "https://0.0.0.0/user/login"
    ],
    "custom_login_page_preview": "<!DOCTYPE html>\n<html>\n<head>\n  <meta charset=\"utf-8\">\n  <meta http-equiv=\"X-UA-Compatible\" content=\"IE=edge,chrome=1\">\n  <title>Sign In with Auth0</title>\n  <meta name=\"viewport\" content=\"width=device-width, initial-scale=1, maximum-scale=1, user-scalable=0\" />\n</head>\n<body>\n\n  <!--[if IE 8]>\n  <script src=\"//cdnjs.cloudflare.com/ajax/libs/ie8/0.2.5/ie8.js\"></script>\n  <![endif]-->\n\n  <!--[if lte IE 9]>\n  <script src=\"https://cdn.auth0.com/js/base64.js\"></script>\n  <script src=\"https://cdn.auth0.com/js/es5-shim.min.js\"></script>\n  <![endif]-->\n\n  <script src=\"https://cdn.auth0.com/js/lock/11.24/lock.min.js\"></script>\n  <script>\n    // Decode utf8 characters properly\n    var config = JSON.parse(decodeURIComponent(escape(window.atob('@@config@@'))));\n    config.extraParams = config.extraParams || {};\n    var connection = config.connection;\n    var prompt = config.prompt;\n    var languageDictionary;\n    var language;\n\n    if (config.dict && config.dict.signin && config.dict.signin.title) {\n      languageDictionary = { title: config.dict.signin.title };\n    } else if (typeof config.dict === 'string') {\n      language = config.dict;\n    }\n    var loginHint = config.extraParams.login_hint;\n    var colors = config.colors || {};\n\n    // Available Lock configuration options: https://auth0.com/docs/libraries/lock/v11/configuration\n    var lock = new Auth0Lock(config.clientID, config.auth0Domain, {\n      auth: {\n        redirectUrl: config.callbackURL,\n        responseType: (config.internalOptions || {}).response_type ||\n          (config.callbackOnLocationHash ? 'token' : 'code'),\n        params: config.internalOptions\n      },\n      /* additional configuration needed for custom domains\n      configurationBaseUrl: config.clientConfigurationBaseUrl,\n      overrides: {\n        __tenant: config.auth0Tenant,\n        __token_issuer: 'YOUR_CUSTOM_DOMAIN'\n      }, */\n      assetsUrl:  config.assetsUrl,\n      allowedConnections: connection ? [connection] : null,\n      rememberLastLogin: !prompt,\n      language: language,\n      languageDictionary: languageDictionary,\n      theme: {\n        //logo:            'YOUR LOGO HERE',\n        primaryColor:    colors.primary ? colors.primary : 'green'\n      },\n      prefill: loginHint ? { email: loginHint, username: loginHint } : null,\n      closable: false,\n      defaultADUsernameFromEmailPrefix: false\n    });\n\n    if(colors.page_background) {\n      var css = '.auth0-lock.auth0-lock .auth0-lock-overlay { background: ' +\n                  colors.page_background +\n                ' }';\n      var style = document.createElement('style');\n\n      style.appendChild(document.createTextNode(css));\n\n      document.body.appendChild(style);\n    }\n\n    lock.show();\n  </script>\n</body>\n</html>",
    "allowed_origins": [
      "http://0.0.0.0",
      "https://0.0.0.0"
    ],
    "jwt_configuration": {
      "alg": "RS256",
      "lifetime_in_seconds": 36000,
      "secret_encoded": false
    },
    "client_aliases": [],
    "token_endpoint_auth_method": "none",
    "app_type": "spa",
    "grant_types": [
      "authorization_code",
      "implicit",
      "refresh_token"
    ],
    "web_origins": [
      "https://gpd.dqnacloud.com",
      "http://gpd.dqnacloud.com",
      "http://gpd-staging.dqnacloud.com",
      "https://gpd-staging.dqnacloud.com"
    ],
    "custom_login_page_on": true
  }